{
  "@context": ["https://www.w3.org/2018/credentials/v1", "https://registry.lab.gaia-x.eu/development/api/trusted-shape-registry/v1/shapes/jsonld/termsandconditions#", "https://registry.lab.gaia-x.eu/development/api/trusted-shape-registry/v1/shapes/jsonld/participant#"],
  "type": ["VerifiablePresentation"],
  "verifiableCredential": [{
    "@context": ["https://www.w3.org/2018/credentials/v1", "https://registry.lab.gaia-x.eu/development/api/trusted-shape-registry/v1/shapes/jsonld/termsandconditions#", "https://registry.lab.gaia-x.eu/development/api/trusted-shape-registry/v1/shapes/jsonld/participant#"],
    "type": ["VerifiableCredential", "gx:LegalParticipant"],
    "id": "did:web:raw.githubusercontent.com:egavard:payload-sign:master",
    "issuer": "did:web:raw.githubusercontent.com:egavard:payload-sign:master",
    "issuanceDate": "2023-03-21T12:00:00.148Z",
    "credentialSubject": {
      "id": "did:web:raw.githubusercontent.com:egavard:payload-sign:master",
      "gx:legalName": "Gaia-X European Association for Data and Cloud AISBL",
      "gx:legalRegistrationNumber": {
        "gx:taxID": "0762747721"
      },
      "gx:headquarterAddress": {
        "gx:countrySubdivisionCode": "BE-BRU"
      },
      "gx:legalAddress": {
        "gx:countrySubdivisionCode": "BE-BRU"
      }
    },
    "proof": {
      "type": "JsonWebSignature2020",
      "created": "2023-02-09T16:00:15.219Z",
      "proofPurpose": "assertionMethod",
      "verificationMethod": "did:web:raw.githubusercontent.com:egavard:payload-sign:master",
      "jws": "eyJhbGciOiJQUzI1NiIsImI2NCI6ZmFsc2UsImNyaXQiOlsiYjY0Il19..lylU5Iy9hWdUN9jX7mCC1WejBp5QneJYLJ4iswBWiy8z2Yg9-W274anOnhxFK7dtlNPxoQGMPbUpR383aw4pjP0k48Rql_GiaNoTEvqixPaiLBuBng1srO1St440nQ1u9S42cD519cJ_ITdOod9nNapGpbKbD9BuULB85mp9urnH231Ph4godd9QOSHtf3ybA2tb7hgENxBgL433f0hDQ08KJnxJM43ku7ryoew-D_GHSY96AFtyalexaLlmmmIGO-SnpPX0JJgqFlE7ouPnV6DCB9Y8c0DHOCZEdXSYnonVh5qjBM598RUXlmvEJ2REJeJwvU8A3YUUqEREKEmhBQ"
    }
  }]
}